INDEX VERSION 1.131+E:\An2Sem2\SE\Lab\Bitbucket SiposDenisAdrian30322\src\Lab12\SE Lab12 workspace\SE Lab12 workspace\.metadata\.plugins\org.eclipse.jdt.core
3308323234.index
1167275426.index
2150458918.index
533848651.index
1514579584.index
1912385274.index
1865797976.index
142807135.index
